{
  "project_info": {
    "project_number": "585919936048",
    "firebase_url": "https://chat-7e3e4.firebaseio.com",
    "project_id": "chat-7e3e4",
    "storage_bucket": "chat-7e3e4.appspot.com"
  },
  "client": [
    {
      "client_info": {
        "mobilesdk_app_id": "1:585919936048:android:ea8b6b232bcf8990",
        "android_client_info": {
          "package_name": "stefano.firebasechat"
        }
      },
      "oauth_client": [
        {
          "client_id": "585919936048-3cc2pj9g5sqsh4et10gc67fdjt04h5fl.apps.googleusercontent.com",
          "client_type": 3
        }
      ],
      "api_key": [
        {
          "current_key": "AIzaSyAuHxCQm8U06ueqeEU2undGmXpgbetvxY4"
        }
      ],
      "services": {
        "appinvite_service": {
          "other_platform_oauth_client": [
            {
              "client_id": "585919936048-3cc2pj9g5sqsh4et10gc67fdjt04h5fl.apps.googleusercontent.com",
              "client_type": 3
            }
          ]
        }
      }
    }
  ],
  "configuration_version": "1"
}